Char;Code (HEX);0;0;0
!;21;0,005;0,005;0,005
(;28;0,005;0,005;0,005
);29;0,005;0,005;0,005
-;2D;0,008;0,008;0,008
.;2E;0,02;0,02;0,02
0;30;0,01;0,015;0,015
1;31;0,01;0,005;0,005
2;32;0,01;0,015;0,015
3;33;0,01;0,005;0,005
4;34;0,01;0,015;0,015
5;35;0,01;0,005;0,005
6;36;0,01;0,015;0,015
7;37;0,01;0,005;0,005
8;38;0,01;0,015;0,015
9;39;0,01;0,005;0,005
?;3F;0,005;0,005;0,005
@;40;0,005;0,005;0,005
A;41;0,012;0,015;0,015
B;42;0,012;0,009;0,009
C;43;0,012;0,015;0,015
D;44;0,012;0,009;0,009
E;45;0,012;0,015;0,015
F;46;0,012;0,009;0,009
G;47;0,012;0,015;0,015
H;48;0,012;0,009;0,009
I;49;0,012;0,015;0,015
J;4A;0,012;0,009;0,009
K;4B;0,012;0,015;0,015
L;4C;0,012;0,009;0,009
M;4D;0,012;0,015;0,015
N;4E;0,012;0,009;0,009
O;4F;0,012;0,015;0,0075
P;50;0,012;0,009;0,009
Q;51;0,012;0,015;0,015
R;52;0,012;0,009;0,009
S;53;0,012;0,015;0,015
T;54;0,012;0,009;0,009
U;55;0,012;0,015;0,015
V;56;0,012;0,009;0,009
W;57;0,012;0,015;0,015
X;58;0,012;0,009;0,009
Y;59;0,012;0,015;0,015
Z;5A;0,012;0,009;0,009
[;5B;0,005;0,005;0,005
];5D;0,005;0,005;0,005
_;5F;0,005;0,005;0,005
a;61;0,01;0,01;0,0125
b;62;0,02;0,02;0,015
c;63;0,01;0,01;0,0125
d;64;0,02;0,02;0,015
e;65;0,01;0,01;0,0125
f;66;0,01;0,01;0,0075
g;67;0,01;0,01;0,0125
h;68;0,02;0,02;0,015
i;69;0,01;0,01;0,0125
j;6A;0,02;0,02;0,015
k;6B;0,01;0,01;0,0125
l;6C;0,02;0,02;0,015
m;6D;0,01;0,01;0,0125
n;6E;0,02;0,02;0,015
o;6F;0,01;0,01;0,0125
p;70;0,02;0,02;0,01
q;71;0,01;0,01;0,0125
r;72;0,01;0,01;0,015
s;73;0,01;0,01;0,0125
t;74;0,01;0,01;0,0075
u;75;0,01;0,01;0,0125
v;76;0,01;0,01;0,0075
w;77;0,01;0,01;0,0125
x;78;0,01;0,01;0,0075
y;79;0,01;0,01;0,0125
z;7A;0,01;0,01;0,0075
<;3C;0,01;0,01;0,0075
>;3E;0,01;0,01;0,0125
"; ;0,01;0,01;0,0125
=; ;0,01;0,01;0,0125
#; ;0,01;0,01;0,0075
%; ;0,01;0,01;0,0125
/; ;0,01;0,01;0,0075
,; ;0,01;0,01;0,0125
»; ;0,01;0,01;0,0125
:; ;0,01;0,01;0,0125
ç;;0,01;0,01;0,0125
ã;;0,01;0,01;0,0125
í;;0,01;0,01;0,0125
ì;;0,01;0,01;0,0125
ê;;0,01;0,01;0,0125
é;;0,01;0,01;0,0125
õ;;0,01;0,01;0,0125
á;;0,01;0,01;0,0075
à;;0,01;0,01;0,0075
;;1;1;1